G04 #@! TF.FileFunction,Copper,L2,Bot,Signal*
%FSLAX46Y46*%
G04 Gerber Fmt 4.6, Leading zero omitted, Abs format (unit mm)*
G04 Created by KiCad (PCBNEW 4.0.4-stable) date Thursday, December 08, 2016 'PMt' 09:37:04 PM*
%MOMM*%
%LPD*%
G01*
G04 APERTURE LIST*
%ADD10C,0.100000*%
%ADD11R,2.032000X1.727200*%
%ADD12O,2.032000X1.727200*%
%ADD13R,0.760000X2.400000*%
%ADD14C,0.600000*%
%ADD15C,0.250000*%
G04 APERTURE END LIST*
D10*
D11*
X158770000Y-93270000D03*
D12*
X158770000Y-95810000D03*
X158770000Y-98350000D03*
X158770000Y-100890000D03*
X158770000Y-103430000D03*
D13*
X149670000Y-99640000D03*
X149670000Y-95740000D03*
X150940000Y-99640000D03*
X150940000Y-95740000D03*
X152210000Y-99640000D03*
X152210000Y-95740000D03*
X153480000Y-99640000D03*
X153480000Y-95740000D03*
X154750000Y-99640000D03*
X154750000Y-95740000D03*
D14*
X149670000Y-97640000D03*
X149250000Y-93680000D03*
X151470000Y-97660000D03*
X151280000Y-93760000D03*
X156000000Y-95710000D03*
D15*
X149670000Y-97640000D02*
X149670000Y-99640000D01*
X149670000Y-95740000D02*
X149670000Y-94100000D01*
X149670000Y-94100000D02*
X149250000Y-93680000D01*
X149700000Y-95770000D02*
X149670000Y-95740000D01*
X152210000Y-99640000D02*
X152210000Y-98400000D01*
X152210000Y-98400000D02*
X151470000Y-97660000D01*
X150940000Y-98190000D02*
X151470000Y-97660000D01*
X150940000Y-99640000D02*
X150940000Y-98190000D01*
X157580000Y-93270000D02*
X158770000Y-93270000D01*
X150930000Y-99650000D02*
X150940000Y-99640000D01*
X150960001Y-94059999D02*
X150940000Y-94080000D01*
X150940000Y-94080000D02*
X150940000Y-95740000D01*
X151280000Y-93760000D02*
X150980001Y-94059999D01*
X150980001Y-94059999D02*
X150960001Y-94059999D01*
X158770000Y-100890000D02*
X157427600Y-100890000D01*
X157427600Y-99557600D02*
X155580000Y-97710000D01*
X157427600Y-100890000D02*
X157427600Y-99557600D01*
X155580000Y-97710000D02*
X153780000Y-97710000D01*
X153780000Y-97710000D02*
X153480000Y-98010000D01*
X153480000Y-98010000D02*
X153480000Y-99640000D01*
X158770000Y-103430000D02*
X157427600Y-103430000D01*
X157427600Y-103430000D02*
X157427600Y-102567600D01*
X157427600Y-102567600D02*
X156857600Y-102567600D01*
X156857600Y-102567600D02*
X154750000Y-100460000D01*
X154750000Y-100460000D02*
X154750000Y-99640000D01*
X155410000Y-95710000D02*
X156000000Y-95710000D01*
X154750000Y-95740000D02*
X155380000Y-95740000D01*
X155380000Y-95740000D02*
X155410000Y-95710000D01*
M02*
