M48
;DRILL file {KiCad 4.0.4-stable} date Thursday, December 08, 2016 'PMt' 09:37:00 PM
;FORMAT={2:4/ absolute / inch / keep zeros}
FMAT,2
INCH,TZ
T1C0.016
T2C0.040
%
G90
G05
M72
T1
X058760Y-036882
X058925Y-038441
X059559Y-036913
X059634Y-038449
X061417Y-037681
T2
X062508Y-036720
X062508Y-037720
X062508Y-038720
X062508Y-039720
X062508Y-040720
T0
M30
